[gd_scene load_steps=4 format=2]

[ext_resource path="res://Scenes/Bullet.gd" type="Script" id=1]
[ext_resource path="res://Asset/Player/Projectile.png" type="Texture" id=2]

[sub_resource type="RectangleShape2D" id=1]
extents = Vector2( 25, 11 )

[node name="Bullet" type="Area2D"]
script = ExtResource( 1 )

[node name="Sprite" type="Sprite" parent="."]
position = Vector2( -2.35577, 1.84131 )
scale = Vector2( 0.406644, 0.406644 )
texture = ExtResource( 2 )

[node name="CollisionShape2D" type="CollisionShape2D" parent="."]
position = Vector2( -1, 2 )
shape = SubResource( 1 )

[node name="VisibilityNotifier2D" type="VisibilityNotifier2D" parent="."]
[connection signal="body_entered" from="." to="." method="_on_Bullet_body_entered"]
[connection signal="screen_exited" from="VisibilityNotifier2D" to="." method="_on_VisibilityNotifier2D_screen_exited"]
